<?xml version="1.0" encoding="UTF-8"?>
<svg width="152px" height="24px" viewBox="0 0 152 24" version="1.1" xmlns="http://www.w3.org/2000/svg" xmlns:xlink="http://www.w3.org/1999/xlink">
    <!-- Generator: Sketch 52.6 (67491) - http://www.bohemiancoding.com/sketch -->
    <title>logo</title>
    <desc>Created with Sketch.</desc>
    <g id="logo" stroke="none" stroke-width="1" fill="none" fill-rule="evenodd">
        <path d="M35.412,3.6 C33.3159895,3.6 32.268,4.22399376 32.268,5.472 C32.268,7.08800808 33.6039866,7.896 36.276,7.896 L38.556,7.896 L38.556,10.44 L36.144,10.44 C35.543997,10.44 35.0160023,10.4559998 34.56,10.488 C34.1039977,10.5200002 33.7640011,10.5639997 33.54,10.62 C33.3159989,10.6760003 33.0400016,10.7679994 32.712,10.896 C32.3839984,11.0240006 32.1400008,11.1759991 31.98,11.352 C31.5639979,11.8160023 31.356,12.3679968 31.356,13.008 C31.356,14.6240081 32.6839867,15.432 35.34,15.432 C36.1720042,15.432 36.983996,15.332001 37.776,15.132 C38.568004,14.931999 39.1879978,14.6960014 39.636,14.424 L40.404,16.968 C38.9159926,17.768004 37.1280104,18.168 35.04,18.168 C32.9519896,18.168 31.3280058,17.7280044 30.168,16.848 C29.0079942,15.9679956 28.428,14.7120082 28.428,13.08 C28.428,11.2239907 29.3479908,9.8560044 31.188,8.976 C29.8919935,8.06399544 29.244,6.808008 29.244,5.208 C29.244,3.91199352 29.7759947,2.85600408 30.84,2.04 C31.9040053,1.22399592 33.331991,0.816 35.124,0.816 C35.8600037,0.816 36.6479958,0.8959992 37.488,1.056 C38.3280042,1.2160008 39.0119974,1.42399872 39.54,1.68 L38.964,4.368 C37.7959942,3.85599744 36.612006,3.6 35.412,3.6 Z M45.804,11.088 L45.804,18 L43.116,18 L43.116,5.232 L45.804,5.232 L45.804,7.56 C46.1880019,6.77599608 46.7679961,6.16000224 47.544,5.712 C48.3200039,5.26399776 49.1559955,5.04 50.052,5.04 C52.0680101,5.04 53.4359964,5.87199168 54.156,7.536 C55.4200063,5.87199168 56.9959906,5.04 58.884,5.04 C60.3240072,5.04 61.4879956,5.4799956 62.376,6.36 C63.2640044,7.2400044 63.708,8.51199168 63.708,10.176 L63.708,18 L61.02,18 L61.02,10.992 C61.02,8.63998824 60.0440098,7.464 58.092,7.464 C57.1799954,7.464 56.3840034,7.75599708 55.704,8.34 C55.0239966,8.92400292 54.6680002,9.7759944 54.636,10.896 L54.636,18 L51.948,18 L51.948,10.992 C51.948,9.77599392 51.7320022,8.88400284 51.3,8.316 C50.8679978,7.74799716 50.1880046,7.464 49.26,7.464 C48.3319954,7.464 47.5240034,7.77199692 46.836,8.388 C46.1479966,9.00400308 45.804,9.90399408 45.804,11.088 Z M74.292,5.04 C76.0040086,5.04 77.4679939,5.63199408 78.684,6.816 C79.9000061,8.00000592 80.508,9.57599016 80.508,11.544 C80.508,13.5120098 79.904006,15.1119938 78.696,16.344 C77.487994,17.5760062 76.080008,18.192 74.472,18.192 C72.863992,18.192 71.4200064,17.488007 70.14,16.08 L70.14,22.656 L67.452,22.656 L67.452,5.232 L70.14,5.232 L70.14,7.464 C71.1960053,5.84799192 72.5799914,5.04 74.292,5.04 Z M70.092,11.64 C70.092,12.8560061 70.4599963,13.8519961 71.196,14.628 C71.9320037,15.4040039 72.8279947,15.792 73.884,15.792 C74.9400053,15.792 75.8599961,15.4080038 76.644,14.64 C77.4280039,13.8719962 77.82,12.8760061 77.82,11.652 C77.82,10.4279939 77.4360038,9.41200404 76.668,8.604 C75.8999962,7.79599596 74.9800054,7.392 73.908,7.392 C72.8359946,7.392 71.9320037,7.79599596 71.196,8.604 C70.4599963,9.41200404 70.092,10.4239939 70.092,11.64 Z M88.788,18.192 C87.1719919,18.192 85.764006,17.5840061 84.564,16.368 C83.363994,15.1519939 82.764,13.5520099 82.764,11.568 C82.764,9.58399008 83.3799938,8.00000592 84.612,6.816 C85.8440062,5.63199408 87.2999916,5.04 88.98,5.04 C90.6600084,5.04 92.0439946,5.839992 93.132,7.44 L93.132,5.232 L95.82,5.232 L95.82,18 L93.132,18 L93.132,15.912 C92.6199974,16.6480037 91.968004,17.211998 91.176,17.604 C90.383996,17.996002 89.588004,18.192 88.788,18.192 Z M85.452,11.688 C85.452,12.9040061 85.8439961,13.8959962 86.628,14.664 C87.4120039,15.4320038 88.3319947,15.816 89.388,15.816 C90.4440053,15.816 91.3399963,15.4280039 92.076,14.652 C92.8120037,13.8759961 93.18,12.8800061 93.18,11.664 C93.18,10.4479939 92.8120037,9.43200408 92.076,8.616 C91.3399963,7.79999592 90.4360054,7.392 89.364,7.392 C88.2919946,7.392 87.3720038,7.79999592 86.604,8.616 C85.8359962,9.43200408 85.452,10.4559938 85.452,11.688 Z M106.404,7.752 C105.075993,7.752 104.076003,8.18399568 103.404,9.048 C102.731997,9.91200432 102.396,11.0719927 102.396,12.528 L102.396,18 L99.708,18 L99.708,5.232 L102.396,5.232 L102.396,7.8 C102.828002,6.999996 103.415996,6.34400256 104.16,5.832 C104.904004,5.31999744 105.691996,5.05600008 106.524,5.04 L106.548,7.752 L106.404,7.752 Z M115.044,5.04 C116.788009,5.04 118.235994,5.52399516 119.388,6.492 C120.540006,7.46000484 121.124,8.71999224 121.14,10.272 L121.164,10.32 L111.852,14.232 C112.684004,15.2560051 113.815993,15.768 115.248,15.768 C116.680007,15.768 117.859995,15.2080056 118.788,14.088 L120.372,15.84 C118.851992,17.4080078 117.06001,18.192 114.996,18.192 C113.187991,18.192 111.636006,17.592006 110.34,16.392 C109.043994,15.191994 108.396,13.6080098 108.396,11.64 C108.396,10.2799932 108.731997,9.08400516 109.404,8.052 C110.076003,7.01999484 110.907995,6.26000244 111.9,5.772 C112.892005,5.28399756 113.939994,5.04 115.044,5.04 Z M110.988,11.688 C110.988,11.896001 110.996,12.0479995 111.012,12.144 L118.092,9.096 C117.547997,8.03999472 116.580007,7.512 115.188,7.512 C114.131995,7.512 113.168004,7.87999632 112.296,8.616 C111.423996,9.35200368 110.988,10.3759934 110.988,11.688 Z M126.612,11.088 L126.612,18 L123.924,18 L123.924,5.232 L126.612,5.232 L126.612,7.56 C127.044002,6.77599608 127.639996,6.16000224 128.4,5.712 C129.160004,5.26399776 129.979996,5.04 130.86,5.04 C132.300007,5.04 133.463996,5.4799956 134.352,6.36 C135.240004,7.2400044 135.684,8.51199168 135.684,10.176 L135.684,18 L132.996,18 L132.996,10.992 C132.996,8.63998824 132.02001,7.464 130.068,7.464 C129.139995,7.464 128.332003,7.77199692 127.644,8.388 C126.955997,9.00400308 126.612,9.90399408 126.612,11.088 Z M141.996,7.392 L141.996,13.872 C141.996,14.480003 142.155998,14.9639982 142.476,15.324 C142.796002,15.6840018 143.243997,15.864 143.82,15.864 C144.396003,15.864 144.947997,15.5840028 145.476,15.024 L146.58,16.92 C145.635995,17.7680042 144.592006,18.192 143.448,18.192 C142.303994,18.192 141.328004,17.796004 140.52,17.004 C139.711996,16.211996 139.308,15.1440067 139.308,13.8 L139.308,1.224 L141.996,1.224 L141.996,5.232 L145.356,5.232 L145.356,7.392 L141.996,7.392 Z" id="Emparent" fill="#FFFFFF"></path>
        <path d="M9.82708817,3.11616339 C10.7902125,1.18991464 12.2351089,-2.48689958e-14 14.233357,-2.48689958e-14 C18.4141547,-2.48689958e-14 19.8861999,4.1217266 17.9337509,8.02662451 C17.4177796,9.05860116 16.4272947,10.4300728 15.0584414,12.072722 C14.7263116,12.4712838 14.3747524,12.8822019 14.0061636,13.3034497 C13.0786533,14.3634702 12.0858237,15.441405 11.0930946,16.48141 C10.745696,16.8453524 10.423049,17.1786369 10.1333638,17.4742345 C9.95920737,17.6519453 9.83448046,17.7778602 9.76740174,17.8449389 C9.56065478,18.0516858 9.22545216,18.0516872 9.01870351,17.844942 C8.95162411,17.7778637 8.82689595,17.6519496 8.65273781,17.4742398 C8.3630497,17.178644 8.04039946,16.8453615 7.69299744,16.4814211 C6.70025849,15.4414219 5.70741906,14.3634924 4.77989952,13.3034761 C4.41129823,12.8822199 4.05972753,12.4712938 3.72758747,12.0727244 C2.35871714,10.4300742 1.36822424,9.05860174 0.85225967,8.02663197 C-1.10020367,4.12173092 0.371839224,-2.48689958e-14 4.55263933,-2.48689958e-14 C6.55088446,-2.48689958e-14 7.9957988,1.18991109 8.95895752,3.11615629 C9.12286446,3.44395786 9.26705214,3.78231881 9.39303357,4.12587145 C9.51900798,3.78232129 9.66318848,3.44396275 9.82708817,3.11616339 Z M11.2157036,8.47058824 C10.4117143,8.47058824 9.81253463,8.89647789 9.40056243,9.57954532 C8.98859023,8.89647789 8.38941059,8.47058824 7.58542125,8.47058824 C5.72752003,8.47058824 5.07327747,10.3024308 5.90177156,11.959419 C6.10965737,12.3751542 6.49326676,12.9062949 7.0218188,13.5405537 C7.14813109,13.6921276 7.28167401,13.848216 7.4215727,14.0080997 C7.77286867,14.4095796 8.14832578,14.8172179 8.52368241,15.2104482 C8.74899023,15.4464847 8.92468652,15.6257666 9.02621178,15.7272918 C9.23295993,15.93404 9.56816492,15.93404 9.77491308,15.7272918 C9.87643379,15.6257711 10.0521219,15.4464971 10.277419,15.2104702 C10.6527578,14.8172559 11.028197,14.4096322 11.3794764,14.0081638 C11.519394,13.8482554 11.6529538,13.6921432 11.7792805,13.5405467 C12.3078201,12.9062807 12.6914083,12.3751335 12.8992557,11.9594024 C13.7277308,10.3024522 13.0735264,8.47058824 11.2157036,8.47058824 Z" id="Combined-Shape" fill="#FFFFFF"></path>
    </g>
</svg>